%YAML 1.1
%TAG !u! tag:unity3d.com,2011:
--- !u!29 &1
OcclusionCullingSettings:
  m_ObjectHideFlags: 0
  serializedVersion: 2
  m_OcclusionBakeSettings:
    smallestOccluder: 5
    smallestHole: 0.25
    backfaceThreshold: 100
  m_SceneGUID: 00000000000000000000000000000000
  m_OcclusionCullingData: {fileID: 0}
--- !u!104 &2
RenderSettings:
  m_ObjectHideFlags: 0
  serializedVersion: 9
  m_Fog: 0
  m_FogColor: {r: 0.5, g: 0.5, b: 0.5, a: 1}
  m_FogMode: 3
  m_FogDensity: 0.01
  m_LinearFogStart: 0
  m_LinearFogEnd: 300
  m_AmbientSkyColor: {r: 0.212, g: 0.227, b: 0.259, a: 1}
  m_AmbientEquatorColor: {r: 0.114, g: 0.125, b: 0.133, a: 1}
  m_AmbientGroundColor: {r: 0.047, g: 0.043, b: 0.035, a: 1}
  m_AmbientIntensity: 1
  m_AmbientMode: 3
  m_SubtractiveShadowColor: {r: 0.42, g: 0.478, b: 0.627, a: 1}
  m_SkyboxMaterial: {fileID: 0}
  m_HaloStrength: 0.5
  m_FlareStrength: 1
  m_FlareFadeSpeed: 3
  m_HaloTexture: {fileID: 0}
  m_SpotCookie: {fileID: 10001, guid: 0000000000000000e000000000000000, type: 0}
  m_DefaultReflectionMode: 0
  m_DefaultReflectionResolution: 128
  m_ReflectionBounces: 1
  m_ReflectionIntensity: 1
  m_CustomReflection: {fileID: 0}
  m_Sun: {fileID: 0}
  m_IndirectSpecularColor: {r: 0, g: 0, b: 0, a: 1}
  m_UseRadianceAmbientProbe: 0
--- !u!157 &3
LightmapSettings:
  m_ObjectHideFlags: 0
  serializedVersion: 11
  m_GIWorkflowMode: 1
  m_GISettings:
    serializedVersion: 2
    m_BounceScale: 1
    m_IndirectOutputScale: 1
    m_AlbedoBoost: 1
    m_EnvironmentLightingMode: 0
    m_EnableBakedLightmaps: 0
    m_EnableRealtimeLightmaps: 0
  m_LightmapEditorSettings:
    serializedVersion: 12
    m_Resolution: 2
    m_BakeResolution: 40
    m_AtlasSize: 1024
    m_AO: 0
    m_AOMaxDistance: 1
    m_CompAOExponent: 1
    m_CompAOExponentDirect: 0
    m_ExtractAmbientOcclusion: 0
    m_Padding: 2
    m_LightmapParameters: {fileID: 0}
    m_LightmapsBakeMode: 1
    m_TextureCompression: 1
    m_FinalGather: 0
    m_FinalGatherFiltering: 1
    m_FinalGatherRayCount: 256
    m_ReflectionCompression: 2
    m_MixedBakeMode: 2
    m_BakeBackend: 1
    m_PVRSampling: 1
    m_PVRDirectSampleCount: 32
    m_PVRSampleCount: 500
    m_PVRBounces: 2
    m_PVREnvironmentSampleCount: 500
    m_PVREnvironmentReferencePointCount: 2048
    m_PVRFilteringMode: 2
    m_PVRDenoiserTypeDirect: 0
    m_PVRDenoiserTypeIndirect: 0
    m_PVRDenoiserTypeAO: 0
    m_PVRFilterTypeDirect: 0
    m_PVRFilterTypeIndirect: 0
    m_PVRFilterTypeAO: 0
    m_PVREnvironmentMIS: 0
    m_PVRCulling: 1
    m_PVRFilteringGaussRadiusDirect: 1
    m_PVRFilteringGaussRadiusIndirect: 5
    m_PVRFilteringGaussRadiusAO: 2
    m_PVRFilteringAtrousPositionSigmaDirect: 0.5
    m_PVRFilteringAtrousPositionSigmaIndirect: 2
    m_PVRFilteringAtrousPositionSigmaAO: 1
    m_ExportTrainingData: 0
    m_TrainingDataDestination: TrainingData
    m_LightProbeSampleCountMultiplier: 4
  m_LightingDataAsset: {fileID: 0}
  m_UseShadowmask: 1
--- !u!196 &4
NavMeshSettings:
  serializedVersion: 2
  m_ObjectHideFlags: 0
  m_BuildSettings:
    serializedVersion: 2
    agentTypeID: 0
    agentRadius: 0.5
    agentHeight: 2
    agentSlope: 45
    agentClimb: 0.4
    ledgeDropHeight: 0
    maxJumpAcrossDistance: 0
    minRegionArea: 2
    manualCellSize: 0
    cellSize: 0.16666667
    manualTileSize: 0
    tileSize: 256
    accuratePlacement: 0
    debug:
      m_Flags: 0
  m_NavMeshData: {fileID: 0}
--- !u!1 &12710565 stripped
GameObject:
  m_CorrespondingSourceObject: {fileID: 1499327403662784, guid: 1e7fdd6db50f6b54dbf976bc096cb9ce,
    type: 3}
  m_PrefabInstance: {fileID: 610446316}
  m_PrefabAsset: {fileID: 0}
--- !u!114 &12710566
MonoBehaviour:
  m_ObjectHideFlags: 0
  m_CorrespondingSourceObject: {fileID: 0}
  m_PrefabInstance: {fileID: 0}
  m_PrefabAsset: {fileID: 0}
  m_GameObject: {fileID: 12710565}
  m_Enabled: 1
  m_EditorHideFlags: 0
  m_Script: {fileID: 11500000, guid: 95ce0bbf1a771704c89cf6b36eb43bc2, type: 3}
  m_Name: 
  m_EditorClassIdentifier: 
  minSpawnDelay: 5
  maxSpawnDelay: 10
  attackerPrefabArray:
  - {fileID: 114524238380976926, guid: 3f4a8696cb385494db26dd2b1e647307, type: 3}
--- !u!4 &12710567 stripped
Transform:
  m_CorrespondingSourceObject: {fileID: 4783717922975062, guid: 1e7fdd6db50f6b54dbf976bc096cb9ce,
    type: 3}
  m_PrefabInstance: {fileID: 610446316}
  m_PrefabAsset: {fileID: 0}
--- !u!1001 &52164916
PrefabInstance:
  m_ObjectHideFlags: 0
  serializedVersion: 2
  m_Modification:
    m_TransformParent: {fileID: 2118012029}
    m_Modifications:
    - target: {fileID: 1481179775543886, guid: e5c753cb93ddcf44d86fa7c8ced0d062, type: 3}
      propertyPath: m_IsActive
      value: 1
      objectReference: {fileID: 0}
    - target: {fileID: 224393629227941280, guid: e5c753cb93ddcf44d86fa7c8ced0d062,
        type: 3}
      propertyPath: m_LocalPosition.x
      value: 0
      objectReference: {fileID: 0}
    - target: {fileID: 224393629227941280, guid: e5c753cb93ddcf44d86fa7c8ced0d062,
        type: 3}
      propertyPath: m_LocalPosition.y
      value: 0
      objectReference: {fileID: 0}
    - target: {fileID: 224393629227941280, guid: e5c753cb93ddcf44d86fa7c8ced0d062,
        type: 3}
      propertyPath: m_LocalPosition.z
      value: 1.6240234
      objectReference: {fileID: 0}
    - target: {fileID: 224393629227941280, guid: e5c753cb93ddcf44d86fa7c8ced0d062,
        type: 3}
      propertyPath: m_LocalRotation.x
      value: -0
      objectReference: {fileID: 0}
    - target: {fileID: 224393629227941280, guid: e5c753cb93ddcf44d86fa7c8ced0d062,
        type: 3}
      propertyPath: m_LocalRotation.y
      value: -0
      objectReference: {fileID: 0}
    - target: {fileID: 224393629227941280, guid: e5c753cb93ddcf44d86fa7c8ced0d062,
        type: 3}
      propertyPath: m_LocalRotation.z
      value: -0
      objectReference: {fileID: 0}
    - target: {fileID: 224393629227941280, guid: e5c753cb93ddcf44d86fa7c8ced0d062,
        type: 3}
      propertyPath: m_LocalRotation.w
      value: 1
      objectReference: {fileID: 0}
    - target: {fileID: 224393629227941280, guid: e5c753cb93ddcf44d86fa7c8ced0d062,
        type: 3}
      propertyPath: m_RootOrder
      value: 2
      objectReference: {fileID: 0}
    - target: {fileID: 224393629227941280, guid: e5c753cb93ddcf44d86fa7c8ced0d062,
        type: 3}
      propertyPath: m_AnchoredPosition.x
      value: 0.2085743
      objectReference: {fileID: 0}
    - target: {fileID: 224393629227941280, guid: e5c753cb93ddcf44d86fa7c8ced0d062,
        type: 3}
      propertyPath: m_AnchoredPosition.y
      value: 0.051376343
      objectReference: {fileID: 0}
    - target: {fileID: 224393629227941280, guid: e5c753cb93ddcf44d86fa7c8ced0d062,
        type: 3}
      propertyPath: m_SizeDelta.x
      value: 1920
      objectReference: {fileID: 0}
    - target: {fileID: 224393629227941280, guid: e5c753cb93ddcf44d86fa7c8ced0d062,
        type: 3}
      propertyPath: m_SizeDelta.y
      value: 1079.2786
      objectReference: {fileID: 0}
    - target: {fileID: 224393629227941280, guid: e5c753cb93ddcf44d86fa7c8ced0d062,
        type: 3}
      propertyPath: m_AnchorMin.x
      value: 0
      objectReference: {fileID: 0}
    - target: {fileID: 224393629227941280, guid: e5c753cb93ddcf44d86fa7c8ced0d062,
        type: 3}
      propertyPath: m_AnchorMin.y
      value: 0
      objectReference: {fileID: 0}
    - target: {fileID: 224393629227941280, guid: e5c753cb93ddcf44d86fa7c8ced0d062,
        type: 3}
      propertyPath: m_AnchorMax.x
      value: 0
      objectReference: {fileID: 0}
    - target: {fileID: 224393629227941280, guid: e5c753cb93ddcf44d86fa7c8ced0d062,
        type: 3}
      propertyPath: m_AnchorMax.y
      value: 0
      objectReference: {fileID: 0}
    - target: {fileID: 224393629227941280, guid: e5c753cb93ddcf44d86fa7c8ced0d062,
        type: 3}
      propertyPath: m_Pivot.x
      value: 0.5
      objectReference: {fileID: 0}
    - target: {fileID: 224393629227941280, guid: e5c753cb93ddcf44d86fa7c8ced0d062,
        type: 3}
      propertyPath: m_Pivot.y
      value: 0.5
      objectReference: {fileID: 0}
    - target: {fileID: 114680427461006834, guid: e5c753cb93ddcf44d86fa7c8ced0d062,
        type: 3}
      propertyPath: m_OnClick.m_PersistentCalls.m_Calls.Array.data[0].m_Target
      value: 
      objectReference: {fileID: 319040612}
    - target: {fileID: 114857042848048368, guid: e5c753cb93ddcf44d86fa7c8ced0d062,
        type: 3}
      propertyPath: m_OnClick.m_PersistentCalls.m_Calls.Array.data[0].m_Target
      value: 
      objectReference: {fileID: 319040612}
    m_RemovedComponents: []
  m_SourcePrefab: {fileID: 100100000, guid: e5c753cb93ddcf44d86fa7c8ced0d062, type: 3}
--- !u!4 &319040611 stripped
Transform:
  m_CorrespondingSourceObject: {fileID: 4657867077449048, guid: 1ee37da65c855354c9c93e4aae5473d9,
    type: 3}
  m_PrefabInstance: {fileID: 2106621614}
  m_PrefabAsset: {fileID: 0}
--- !u!114 &319040612 stripped
MonoBehaviour:
  m_CorrespondingSourceObject: {fileID: 114966389011391646, guid: 1ee37da65c855354c9c93e4aae5473d9,
    type: 3}
  m_PrefabInstance: {fileID: 2106621614}
  m_PrefabAsset: {fileID: 0}
  m_GameObject: {fileID: 0}
  m_Enabled: 1
  m_EditorHideFlags: 0
  m_Script: {fileID: 11500000, guid: 4cfe8c1e90a6a0c44a8a5c53f4d95e94, type: 3}
  m_Name: 
  m_EditorClassIdentifier: 
--- !u!1001 &459121666
PrefabInstance:
  m_ObjectHideFlags: 0
  serializedVersion: 2
  m_Modification:
    m_TransformParent: {fileID: 2082579480}
    m_Modifications:
    - target: {fileID: 1499327403662784, guid: 1e7fdd6db50f6b54dbf976bc096cb9ce, type: 3}
      propertyPath: m_Name
      value: Spawner (2)
      objectReference: {fileID: 0}
    - target: {fileID: 4783717922975062, guid: 1e7fdd6db50f6b54dbf976bc096cb9ce, type: 3}
      propertyPath: m_LocalPosition.x
      value: 10.12
      objectReference: {fileID: 0}
    - target: {fileID: 4783717922975062, guid: 1e7fdd6db50f6b54dbf976bc096cb9ce, type: 3}
      propertyPath: m_LocalPosition.y
      value: 4
      objectReference: {fileID: 0}
    - target: {fileID: 4783717922975062, guid: 1e7fdd6db50f6b54dbf976bc096cb9ce, type: 3}
      propertyPath: m_LocalPosition.z
      value: 0
      objectReference: {fileID: 0}
    - target: {fileID: 4783717922975062, guid: 1e7fdd6db50f6b54dbf976bc096cb9ce, type: 3}
      propertyPath: m_LocalRotation.x
      value: -0
      objectReference: {fileID: 0}
    - target: {fileID: 4783717922975062, guid: 1e7fdd6db50f6b54dbf976bc096cb9ce, type: 3}
      propertyPath: m_LocalRotation.y
      value: -0
      objectReference: {fileID: 0}
    - target: {fileID: 4783717922975062, guid: 1e7fdd6db50f6b54dbf976bc096cb9ce, type: 3}
      propertyPath: m_LocalRotation.z
      value: -0
      objectReference: {fileID: 0}
    - target: {fileID: 4783717922975062, guid: 1e7fdd6db50f6b54dbf976bc096cb9ce, type: 3}
      propertyPath: m_LocalRotation.w
      value: 1
      objectReference: {fileID: 0}
    - target: {fileID: 4783717922975062, guid: 1e7fdd6db50f6b54dbf976bc096cb9ce, type: 3}
      propertyPath: m_RootOrder
      value: 1
      objectReference: {fileID: 0}
    m_RemovedComponents: []
  m_SourcePrefab: {fileID: 100100000, guid: 1e7fdd6db50f6b54dbf976bc096cb9ce, type: 3}
--- !u!1001 &544607520
PrefabInstance:
  m_ObjectHideFlags: 0
  serializedVersion: 2
  m_Modification:
    m_TransformParent: {fileID: 2082579480}
    m_Modifications:
    - target: {fileID: 1499327403662784, guid: 1e7fdd6db50f6b54dbf976bc096cb9ce, type: 3}
      propertyPath: m_Name
      value: Spawner (3)
      objectReference: {fileID: 0}
    - target: {fileID: 4783717922975062, guid: 1e7fdd6db50f6b54dbf976bc096cb9ce, type: 3}
      propertyPath: m_LocalPosition.x
      value: 10.12
      objectReference: {fileID: 0}
    - target: {fileID: 4783717922975062, guid: 1e7fdd6db50f6b54dbf976bc096cb9ce, type: 3}
      propertyPath: m_LocalPosition.y
      value: 3
      objectReference: {fileID: 0}
    - target: {fileID: 4783717922975062, guid: 1e7fdd6db50f6b54dbf976bc096cb9ce, type: 3}
      propertyPath: m_LocalPosition.z
      value: 0
      objectReference: {fileID: 0}
    - target: {fileID: 4783717922975062, guid: 1e7fdd6db50f6b54dbf976bc096cb9ce, type: 3}
      propertyPath: m_LocalRotation.x
      value: -0
      objectReference: {fileID: 0}
    - target: {fileID: 4783717922975062, guid: 1e7fdd6db50f6b54dbf976bc096cb9ce, type: 3}
      propertyPath: m_LocalRotation.y
      value: -0
      objectReference: {fileID: 0}
    - target: {fileID: 4783717922975062, guid: 1e7fdd6db50f6b54dbf976bc096cb9ce, type: 3}
      propertyPath: m_LocalRotation.z
      value: -0
      objectReference: {fileID: 0}
    - target: {fileID: 4783717922975062, guid: 1e7fdd6db50f6b54dbf976bc096cb9ce, type: 3}
      propertyPath: m_LocalRotation.w
      value: 1
      objectReference: {fileID: 0}
    - target: {fileID: 4783717922975062, guid: 1e7fdd6db50f6b54dbf976bc096cb9ce, type: 3}
      propertyPath: m_RootOrder
      value: 2
      objectReference: {fileID: 0}
    m_RemovedComponents: []
  m_SourcePrefab: {fileID: 100100000, guid: 1e7fdd6db50f6b54dbf976bc096cb9ce, type: 3}
--- !u!1 &557978798 stripped
GameObject:
  m_CorrespondingSourceObject: {fileID: 1499327403662784, guid: 1e7fdd6db50f6b54dbf976bc096cb9ce,
    type: 3}
  m_PrefabInstance: {fileID: 459121666}
  m_PrefabAsset: {fileID: 0}
--- !u!114 &557978799
MonoBehaviour:
  m_ObjectHideFlags: 0
  m_CorrespondingSourceObject: {fileID: 0}
  m_PrefabInstance: {fileID: 0}
  m_PrefabAsset: {fileID: 0}
  m_GameObject: {fileID: 557978798}
  m_Enabled: 1
  m_EditorHideFlags: 0
  m_Script: {fileID: 11500000, guid: 95ce0bbf1a771704c89cf6b36eb43bc2, type: 3}
  m_Name: 
  m_EditorClassIdentifier: 
  minSpawnDelay: 5
  maxSpawnDelay: 10
  attackerPrefabArray:
  - {fileID: 114524238380976926, guid: 3f4a8696cb385494db26dd2b1e647307, type: 3}
--- !u!4 &557978800 stripped
Transform:
  m_CorrespondingSourceObject: {fileID: 4783717922975062, guid: 1e7fdd6db50f6b54dbf976bc096cb9ce,
    type: 3}
  m_PrefabInstance: {fileID: 459121666}
  m_PrefabAsset: {fileID: 0}
--- !u!1001 &610446316
PrefabInstance:
  m_ObjectHideFlags: 0
  serializedVersion: 2
  m_Modification:
    m_TransformParent: {fileID: 2082579480}
    m_Modifications:
    - target: {fileID: 1499327403662784, guid: 1e7fdd6db50f6b54dbf976bc096cb9ce, type: 3}
      propertyPath: m_Name
      value: Spawner (4)
      objectReference: {fileID: 0}
    - target: {fileID: 4783717922975062, guid: 1e7fdd6db50f6b54dbf976bc096cb9ce, type: 3}
      propertyPath: m_LocalPosition.x
      value: 10.12
      objectReference: {fileID: 0}
    - target: {fileID: 4783717922975062, guid: 1e7fdd6db50f6b54dbf976bc096cb9ce, type: 3}
      propertyPath: m_LocalPosition.y
      value: 2
      objectReference: {fileID: 0}
    - target: {fileID: 4783717922975062, guid: 1e7fdd6db50f6b54dbf976bc096cb9ce, type: 3}
      propertyPath: m_LocalPosition.z
      value: 0
      objectReference: {fileID: 0}
    - target: {fileID: 4783717922975062, guid: 1e7fdd6db50f6b54dbf976bc096cb9ce, type: 3}
      propertyPath: m_LocalRotation.x
      value: -0
      objectReference: {fileID: 0}
    - target: {fileID: 4783717922975062, guid: 1e7fdd6db50f6b54dbf976bc096cb9ce, type: 3}
      propertyPath: m_LocalRotation.y
      value: -0
      objectReference: {fileID: 0}
    - target: {fileID: 4783717922975062, guid: 1e7fdd6db50f6b54dbf976bc096cb9ce, type: 3}
      propertyPath: m_LocalRotation.z
      value: -0
      objectReference: {fileID: 0}
    - target: {fileID: 4783717922975062, guid: 1e7fdd6db50f6b54dbf976bc096cb9ce, type: 3}
      propertyPath: m_LocalRotation.w
      value: 1
      objectReference: {fileID: 0}
    - target: {fileID: 4783717922975062, guid: 1e7fdd6db50f6b54dbf976bc096cb9ce, type: 3}
      propertyPath: m_RootOrder
      value: 3
      objectReference: {fileID: 0}
    m_RemovedComponents: []
  m_SourcePrefab: {fileID: 100100000, guid: 1e7fdd6db50f6b54dbf976bc096cb9ce, type: 3}
--- !u!1001 &642340454
PrefabInstance:
  m_ObjectHideFlags: 0
  serializedVersion: 2
  m_Modification:
    m_TransformParent: {fileID: 2118012029}
    m_Modifications:
    - target: {fileID: 224139331384549176, guid: 4a01f11256f97a445801d0533b5d0a23,
        type: 3}
      propertyPath: m_LocalPosition.x
      value: 0
      objectReference: {fileID: 0}
    - target: {fileID: 224139331384549176, guid: 4a01f11256f97a445801d0533b5d0a23,
        type: 3}
      propertyPath: m_LocalPosition.y
      value: 0
      objectReference: {fileID: 0}
    - target: {fileID: 224139331384549176, guid: 4a01f11256f97a445801d0533b5d0a23,
        type: 3}
      propertyPath: m_LocalPosition.z
      value: 1.6240234
      objectReference: {fileID: 0}
    - target: {fileID: 224139331384549176, guid: 4a01f11256f97a445801d0533b5d0a23,
        type: 3}
      propertyPath: m_LocalRotation.x
      value: -0
      objectReference: {fileID: 0}
    - target: {fileID: 224139331384549176, guid: 4a01f11256f97a445801d0533b5d0a23,
        type: 3}
      propertyPath: m_LocalRotation.y
      value: -0
      objectReference: {fileID: 0}
    - target: {fileID: 224139331384549176, guid: 4a01f11256f97a445801d0533b5d0a23,
        type: 3}
      propertyPath: m_LocalRotation.z
      value: -0
      objectReference: {fileID: 0}
    - target: {fileID: 224139331384549176, guid: 4a01f11256f97a445801d0533b5d0a23,
        type: 3}
      propertyPath: m_LocalRotation.w
      value: 1
      objectReference: {fileID: 0}
    - target: {fileID: 224139331384549176, guid: 4a01f11256f97a445801d0533b5d0a23,
        type: 3}
      propertyPath: m_RootOrder
      value: 1
      objectReference: {fileID: 0}
    - target: {fileID: 224139331384549176, guid: 4a01f11256f97a445801d0533b5d0a23,
        type: 3}
      propertyPath: m_AnchoredPosition.x
      value: 0.20857382
      objectReference: {fileID: 0}
    - target: {fileID: 224139331384549176, guid: 4a01f11256f97a445801d0533b5d0a23,
        type: 3}
      propertyPath: m_AnchoredPosition.y
      value: 0.051376343
      objectReference: {fileID: 0}
    - target: {fileID: 224139331384549176, guid: 4a01f11256f97a445801d0533b5d0a23,
        type: 3}
      propertyPath: m_SizeDelta.x
      value: 1920
      objectReference: {fileID: 0}
    - target: {fileID: 224139331384549176, guid: 4a01f11256f97a445801d0533b5d0a23,
        type: 3}
      propertyPath: m_SizeDelta.y
      value: 1079.2786
      objectReference: {fileID: 0}
    - target: {fileID: 224139331384549176, guid: 4a01f11256f97a445801d0533b5d0a23,
        type: 3}
      propertyPath: m_AnchorMin.x
      value: 0
      objectReference: {fileID: 0}
    - target: {fileID: 224139331384549176, guid: 4a01f11256f97a445801d0533b5d0a23,
        type: 3}
      propertyPath: m_AnchorMin.y
      value: 0
      objectReference: {fileID: 0}
    - target: {fileID: 224139331384549176, guid: 4a01f11256f97a445801d0533b5d0a23,
        type: 3}
      propertyPath: m_AnchorMax.x
      value: 0
      objectReference: {fileID: 0}
    - target: {fileID: 224139331384549176, guid: 4a01f11256f97a445801d0533b5d0a23,
        type: 3}
      propertyPath: m_AnchorMax.y
      value: 0
      objectReference: {fileID: 0}
    - target: {fileID: 224139331384549176, guid: 4a01f11256f97a445801d0533b5d0a23,
        type: 3}
      propertyPath: m_Pivot.x
      value: 0.5
      objectReference: {fileID: 0}
    - target: {fileID: 224139331384549176, guid: 4a01f11256f97a445801d0533b5d0a23,
        type: 3}
      propertyPath: m_Pivot.y
      value: 0.5
      objectReference: {fileID: 0}
    - target: {fileID: 1837643597, guid: 4a01f11256f97a445801d0533b5d0a23, type: 3}
      propertyPath: m_OnClick.m_PersistentCalls.m_Calls.Array.data[0].m_Target
      value: 
      objectReference: {fileID: 319040612}
    - target: {fileID: 1837643597, guid: 4a01f11256f97a445801d0533b5d0a23, type: 3}
      propertyPath: m_OnClick.m_PersistentCalls.m_Calls.Array.data[0].m_MethodName
      value: LoadNextScene
      objectReference: {fileID: 0}
    - target: {fileID: 1624749888, guid: 4a01f11256f97a445801d0533b5d0a23, type: 3}
      propertyPath: m_OnClick.m_PersistentCalls.m_Calls.Array.data[0].m_Target
      value: 
      objectReference: {fileID: 319040612}
    - target: {fileID: 1624749888, guid: 4a01f11256f97a445801d0533b5d0a23, type: 3}
      propertyPath: m_OnClick.m_PersistentCalls.m_Calls.Array.data[0].m_MethodName
      value: LoadMainMenuNormally
      objectReference: {fileID: 0}
    m_RemovedComponents: []
  m_SourcePrefab: {fileID: 100100000, guid: 4a01f11256f97a445801d0533b5d0a23, type: 3}
--- !u!1 &642340455 stripped
GameObject:
  m_CorrespondingSourceObject: {fileID: 1912422935962390, guid: 4a01f11256f97a445801d0533b5d0a23,
    type: 3}
  m_PrefabInstance: {fileID: 642340454}
  m_PrefabAsset: {fileID: 0}
--- !u!224 &642340456 stripped
RectTransform:
  m_CorrespondingSourceObject: {fileID: 224139331384549176, guid: 4a01f11256f97a445801d0533b5d0a23,
    type: 3}
  m_PrefabInstance: {fileID: 642340454}
  m_PrefabAsset: {fileID: 0}
--- !u!1001 &700001602
PrefabInstance:
  m_ObjectHideFlags: 0
  serializedVersion: 2
  m_Modification:
    m_TransformParent: {fileID: 0}
    m_Modifications:
    - target: {fileID: 4381165898982644, guid: 667c41299a894dd43b7db1b68f6426b1, type: 3}
      propertyPath: m_LocalPosition.x
      value: -2.05
      objectReference: {fileID: 0}
    - target: {fileID: 4381165898982644, guid: 667c41299a894dd43b7db1b68f6426b1, type: 3}
      propertyPath: m_LocalPosition.y
      value: 3.03
      objectReference: {fileID: 0}
    - target: {fileID: 4381165898982644, guid: 667c41299a894dd43b7db1b68f6426b1, type: 3}
      propertyPath: m_LocalPosition.z
      value: 0
      objectReference: {fileID: 0}
    - target: {fileID: 4381165898982644, guid: 667c41299a894dd43b7db1b68f6426b1, type: 3}
      propertyPath: m_LocalRotation.x
      value: 0
      objectReference: {fileID: 0}
    - target: {fileID: 4381165898982644, guid: 667c41299a894dd43b7db1b68f6426b1, type: 3}
      propertyPath: m_LocalRotation.y
      value: 0
      objectReference: {fileID: 0}
    - target: {fileID: 4381165898982644, guid: 667c41299a894dd43b7db1b68f6426b1, type: 3}
      propertyPath: m_LocalRotation.z
      value: 0
      objectReference: {fileID: 0}
    - target: {fileID: 4381165898982644, guid: 667c41299a894dd43b7db1b68f6426b1, type: 3}
      propertyPath: m_LocalRotation.w
      value: 1
      objectReference: {fileID: 0}
    - target: {fileID: 4381165898982644, guid: 667c41299a894dd43b7db1b68f6426b1, type: 3}
      propertyPath: m_RootOrder
      value: 3
      objectReference: {fileID: 0}
    m_RemovedComponents: []
  m_SourcePrefab: {fileID: 100100000, guid: 667c41299a894dd43b7db1b68f6426b1, type: 3}
--- !u!1 &783317875 stripped
GameObject:
  m_CorrespondingSourceObject: {fileID: 1481179775543886, guid: e5c753cb93ddcf44d86fa7c8ced0d062,
    type: 3}
  m_PrefabInstance: {fileID: 52164916}
  m_PrefabAsset: {fileID: 0}
--- !u!224 &783317876 stripped
RectTransform:
  m_CorrespondingSourceObject: {fileID: 224393629227941280, guid: e5c753cb93ddcf44d86fa7c8ced0d062,
    type: 3}
  m_PrefabInstance: {fileID: 52164916}
  m_PrefabAsset: {fileID: 0}
--- !u!1001 &795419431
PrefabInstance:
  m_ObjectHideFlags: 0
  serializedVersion: 2
  m_Modification:
    m_TransformParent: {fileID: 0}
    m_Modifications:
    - target: {fileID: 4012171919131844, guid: b1c534dcc6188aa47be39a85983fd320, type: 3}
      propertyPath: m_LocalPosition.x
      value: 5
      objectReference: {fileID: 0}
    - target: {fileID: 4012171919131844, guid: b1c534dcc6188aa47be39a85983fd320, type: 3}
      propertyPath: m_LocalPosition.y
      value: 3
      objectReference: {fileID: 0}
    - target: {fileID: 4012171919131844, guid: b1c534dcc6188aa47be39a85983fd320, type: 3}
      propertyPath: m_LocalPosition.z
      value: -10
      objectReference: {fileID: 0}
    - target: {fileID: 4012171919131844, guid: b1c534dcc6188aa47be39a85983fd320, type: 3}
      propertyPath: m_LocalRotation.x
      value: 0
      objectReference: {fileID: 0}
    - target: {fileID: 4012171919131844, guid: b1c534dcc6188aa47be39a85983fd320, type: 3}
      propertyPath: m_LocalRotation.y
      value: 0
      objectReference: {fileID: 0}
    - target: {fileID: 4012171919131844, guid: b1c534dcc6188aa47be39a85983fd320, type: 3}
      propertyPath: m_LocalRotation.z
      value: 0
      objectReference: {fileID: 0}
    - target: {fileID: 4012171919131844, guid: b1c534dcc6188aa47be39a85983fd320, type: 3}
      propertyPath: m_LocalRotation.w
      value: 1
      objectReference: {fileID: 0}
    - target: {fileID: 4012171919131844, guid: b1c534dcc6188aa47be39a85983fd320, type: 3}
      propertyPath: m_RootOrder
      value: 0
      objectReference: {fileID: 0}
    m_RemovedComponents: []
  m_SourcePrefab: {fileID: 100100000, guid: b1c534dcc6188aa47be39a85983fd320, type: 3}
--- !u!1 &827130539 stripped
GameObject:
  m_CorrespondingSourceObject: {fileID: 1499327403662784, guid: 1e7fdd6db50f6b54dbf976bc096cb9ce,
    type: 3}
  m_PrefabInstance: {fileID: 544607520}
  m_PrefabAsset: {fileID: 0}
--- !u!114 &827130540
MonoBehaviour:
  m_ObjectHideFlags: 0
  m_CorrespondingSourceObject: {fileID: 0}
  m_PrefabInstance: {fileID: 0}
  m_PrefabAsset: {fileID: 0}
  m_GameObject: {fileID: 827130539}
  m_Enabled: 1
  m_EditorHideFlags: 0
  m_Script: {fileID: 11500000, guid: 95ce0bbf1a771704c89cf6b36eb43bc2, type: 3}
  m_Name: 
  m_EditorClassIdentifier: 
  minSpawnDelay: 5
  maxSpawnDelay: 10
  attackerPrefabArray:
  - {fileID: 114524238380976926, guid: 3f4a8696cb385494db26dd2b1e647307, type: 3}
--- !u!4 &827130541 stripped
Transform:
  m_CorrespondingSourceObject: {fileID: 4783717922975062, guid: 1e7fdd6db50f6b54dbf976bc096cb9ce,
    type: 3}
  m_PrefabInstance: {fileID: 544607520}
  m_PrefabAsset: {fileID: 0}
--- !u!1 &848811182 stripped
GameObject:
  m_CorrespondingSourceObject: {fileID: 1499327403662784, guid: 1e7fdd6db50f6b54dbf976bc096cb9ce,
    type: 3}
  m_PrefabInstance: {fileID: 1479063925}
  m_PrefabAsset: {fileID: 0}
--- !u!114 &848811183
MonoBehaviour:
  m_ObjectHideFlags: 0
  m_CorrespondingSourceObject: {fileID: 0}
  m_PrefabInstance: {fileID: 0}
  m_PrefabAsset: {fileID: 0}
  m_GameObject: {fileID: 848811182}
  m_Enabled: 1
  m_EditorHideFlags: 0
  m_Script: {fileID: 11500000, guid: 95ce0bbf1a771704c89cf6b36eb43bc2, type: 3}
  m_Name: 
  m_EditorClassIdentifier: 
  minSpawnDelay: 3
  maxSpawnDelay: 4
  attackerPrefabArray:
  - {fileID: 114524238380976926, guid: 3f4a8696cb385494db26dd2b1e647307, type: 3}
--- !u!4 &848811184 stripped
Transform:
  m_CorrespondingSourceObject: {fileID: 4783717922975062, guid: 1e7fdd6db50f6b54dbf976bc096cb9ce,
    type: 3}
  m_PrefabInstance: {fileID: 1479063925}
  m_PrefabAsset: {fileID: 0}
--- !u!1001 &1050257441
PrefabInstance:
  m_ObjectHideFlags: 0
  serializedVersion: 2
  m_Modification:
    m_TransformParent: {fileID: 2082579480}
    m_Modifications:
    - target: {fileID: 1499327403662784, guid: 1e7fdd6db50f6b54dbf976bc096cb9ce, type: 3}
      propertyPath: m_Name
      value: Spawner (1)
      objectReference: {fileID: 0}
    - target: {fileID: 4783717922975062, guid: 1e7fdd6db50f6b54dbf976bc096cb9ce, type: 3}
      propertyPath: m_LocalPosition.x
      value: 10.12
      objectReference: {fileID: 0}
    - target: {fileID: 4783717922975062, guid: 1e7fdd6db50f6b54dbf976bc096cb9ce, type: 3}
      propertyPath: m_LocalPosition.y
      value: 5
      objectReference: {fileID: 0}
    - target: {fileID: 4783717922975062, guid: 1e7fdd6db50f6b54dbf976bc096cb9ce, type: 3}
      propertyPath: m_LocalPosition.z
      value: 0
      objectReference: {fileID: 0}
    - target: {fileID: 4783717922975062, guid: 1e7fdd6db50f6b54dbf976bc096cb9ce, type: 3}
      propertyPath: m_LocalRotation.x
      value: -0
      objectReference: {fileID: 0}
    - target: {fileID: 4783717922975062, guid: 1e7fdd6db50f6b54dbf976bc096cb9ce, type: 3}
      propertyPath: m_LocalRotation.y
      value: -0
      objectReference: {fileID: 0}
    - target: {fileID: 4783717922975062, guid: 1e7fdd6db50f6b54dbf976bc096cb9ce, type: 3}
      propertyPath: m_LocalRotation.z
      value: -0
      objectReference: {fileID: 0}
    - target: {fileID: 4783717922975062, guid: 1e7fdd6db50f6b54dbf976bc096cb9ce, type: 3}
      propertyPath: m_LocalRotation.w
      value: 1
      objectReference: {fileID: 0}
    - target: {fileID: 4783717922975062, guid: 1e7fdd6db50f6b54dbf976bc096cb9ce, type: 3}
      propertyPath: m_RootOrder
      value: 0
      objectReference: {fileID: 0}
    m_RemovedComponents: []
  m_SourcePrefab: {fileID: 100100000, guid: 1e7fdd6db50f6b54dbf976bc096cb9ce, type: 3}
--- !u!1001 &1429221080
PrefabInstance:
  m_ObjectHideFlags: 0
  serializedVersion: 2
  m_Modification:
    m_TransformParent: {fileID: 0}
    m_Modifications:
    - target: {fileID: 4083558437809162, guid: cbca3f1ec0ae95646878dcbd7b9b8174, type: 3}
      propertyPath: m_LocalPosition.x
      value: 0
      objectReference: {fileID: 0}
    - target: {fileID: 4083558437809162, guid: cbca3f1ec0ae95646878dcbd7b9b8174, type: 3}
      propertyPath: m_LocalPosition.y
      value: 0
      objectReference: {fileID: 0}
    - target: {fileID: 4083558437809162, guid: cbca3f1ec0ae95646878dcbd7b9b8174, type: 3}
      propertyPath: m_LocalPosition.z
      value: 1
      objectReference: {fileID: 0}
    - target: {fileID: 4083558437809162, guid: cbca3f1ec0ae95646878dcbd7b9b8174, type: 3}
      propertyPath: m_LocalRotation.x
      value: 0
      objectReference: {fileID: 0}
    - target: {fileID: 4083558437809162, guid: cbca3f1ec0ae95646878dcbd7b9b8174, type: 3}
      propertyPath: m_LocalRotation.y
      value: 0
      objectReference: {fileID: 0}
    - target: {fileID: 4083558437809162, guid: cbca3f1ec0ae95646878dcbd7b9b8174, type: 3}
      propertyPath: m_LocalRotation.z
      value: 0
      objectReference: {fileID: 0}
    - target: {fileID: 4083558437809162, guid: cbca3f1ec0ae95646878dcbd7b9b8174, type: 3}
      propertyPath: m_LocalRotation.w
      value: 1
      objectReference: {fileID: 0}
    - target: {fileID: 4083558437809162, guid: cbca3f1ec0ae95646878dcbd7b9b8174, type: 3}
      propertyPath: m_RootOrder
      value: 2
      objectReference: {fileID: 0}
    m_RemovedComponents: []
  m_SourcePrefab: {fileID: 100100000, guid: cbca3f1ec0ae95646878dcbd7b9b8174, type: 3}
--- !u!1 &1472841697 stripped
GameObject:
  m_CorrespondingSourceObject: {fileID: 1499327403662784, guid: 1e7fdd6db50f6b54dbf976bc096cb9ce,
    type: 3}
  m_PrefabInstance: {fileID: 1050257441}
  m_PrefabAsset: {fileID: 0}
--- !u!114 &1472841698
MonoBehaviour:
  m_ObjectHideFlags: 0
  m_CorrespondingSourceObject: {fileID: 0}
  m_PrefabInstance: {fileID: 0}
  m_PrefabAsset: {fileID: 0}
  m_GameObject: {fileID: 1472841697}
  m_Enabled: 1
  m_EditorHideFlags: 0
  m_Script: {fileID: 11500000, guid: 95ce0bbf1a771704c89cf6b36eb43bc2, type: 3}
  m_Name: 
  m_EditorClassIdentifier: 
  minSpawnDelay: 10
  maxSpawnDelay: 10
  attackerPrefabArray:
  - {fileID: 114524238380976926, guid: 3f4a8696cb385494db26dd2b1e647307, type: 3}
--- !u!4 &1472841699 stripped
Transform:
  m_CorrespondingSourceObject: {fileID: 4783717922975062, guid: 1e7fdd6db50f6b54dbf976bc096cb9ce,
    type: 3}
  m_PrefabInstance: {fileID: 1050257441}
  m_PrefabAsset: {fileID: 0}
--- !u!1001 &1479063925
PrefabInstance:
  m_ObjectHideFlags: 0
  serializedVersion: 2
  m_Modification:
    m_TransformParent: {fileID: 2082579480}
    m_Modifications:
    - target: {fileID: 1499327403662784, guid: 1e7fdd6db50f6b54dbf976bc096cb9ce, type: 3}
      propertyPath: m_Name
      value: Spawner (5)
      objectReference: {fileID: 0}
    - target: {fileID: 4783717922975062, guid: 1e7fdd6db50f6b54dbf976bc096cb9ce, type: 3}
      propertyPath: m_LocalPosition.x
      value: 10.12
      objectReference: {fileID: 0}
    - target: {fileID: 4783717922975062, guid: 1e7fdd6db50f6b54dbf976bc096cb9ce, type: 3}
      propertyPath: m_LocalPosition.y
      value: 1
      objectReference: {fileID: 0}
    - target: {fileID: 4783717922975062, guid: 1e7fdd6db50f6b54dbf976bc096cb9ce, type: 3}
      propertyPath: m_LocalPosition.z
      value: 0
      objectReference: {fileID: 0}
    - target: {fileID: 4783717922975062, guid: 1e7fdd6db50f6b54dbf976bc096cb9ce, type: 3}
      propertyPath: m_LocalRotation.x
      value: -0
      objectReference: {fileID: 0}
    - target: {fileID: 4783717922975062, guid: 1e7fdd6db50f6b54dbf976bc096cb9ce, type: 3}
      propertyPath: m_LocalRotation.y
      value: -0
      objectReference: {fileID: 0}
    - target: {fileID: 4783717922975062, guid: 1e7fdd6db50f6b54dbf976bc096cb9ce, type: 3}
      propertyPath: m_LocalRotation.z
      value: -0
      objectReference: {fileID: 0}
    - target: {fileID: 4783717922975062, guid: 1e7fdd6db50f6b54dbf976bc096cb9ce, type: 3}
      propertyPath: m_LocalRotation.w
      value: 1
      objectReference: {fileID: 0}
    - target: {fileID: 4783717922975062, guid: 1e7fdd6db50f6b54dbf976bc096cb9ce, type: 3}
      propertyPath: m_RootOrder
      value: 4
      objectReference: {fileID: 0}
    m_RemovedComponents: []
  m_SourcePrefab: {fileID: 100100000, guid: 1e7fdd6db50f6b54dbf976bc096cb9ce, type: 3}
--- !u!1 &1604513427
GameObject:
  m_ObjectHideFlags: 0
  m_CorrespondingSourceObject: {fileID: 0}
  m_PrefabInstance: {fileID: 0}
  m_PrefabAsset: {fileID: 0}
  serializedVersion: 6
  m_Component:
  - component: {fileID: 1604513430}
  - component: {fileID: 1604513429}
  - component: {fileID: 1604513428}
  m_Layer: 0
  m_Name: EventSystem
  m_TagString: Untagged
  m_Icon: {fileID: 0}
  m_NavMeshLayer: 0
  m_StaticEditorFlags: 0
  m_IsActive: 1
--- !u!114 &1604513428
MonoBehaviour:
  m_ObjectHideFlags: 0
  m_CorrespondingSourceObject: {fileID: 0}
  m_PrefabInstance: {fileID: 0}
  m_PrefabAsset: {fileID: 0}
  m_GameObject: {fileID: 1604513427}
  m_Enabled: 1
  m_EditorHideFlags: 0
  m_Script: {fileID: 11500000, guid: 4f231c4fb786f3946a6b90b886c48677, type: 3}
  m_Name: 
  m_EditorClassIdentifier: 
  m_HorizontalAxis: Horizontal
  m_VerticalAxis: Vertical
  m_SubmitButton: Submit
  m_CancelButton: Cancel
  m_InputActionsPerSecond: 10
  m_RepeatDelay: 0.5
  m_ForceModuleActive: 0
--- !u!114 &1604513429
MonoBehaviour:
  m_ObjectHideFlags: 0
  m_CorrespondingSourceObject: {fileID: 0}
  m_PrefabInstance: {fileID: 0}
  m_PrefabAsset: {fileID: 0}
  m_GameObject: {fileID: 1604513427}
  m_Enabled: 1
  m_EditorHideFlags: 0
  m_Script: {fileID: 11500000, guid: 76c392e42b5098c458856cdf6ecaaaa1, type: 3}
  m_Name: 
  m_EditorClassIdentifier: 
  m_FirstSelected: {fileID: 0}
  m_sendNavigationEvents: 1
  m_DragThreshold: 10
--- !u!4 &1604513430
Transform:
  m_ObjectHideFlags: 0
  m_CorrespondingSourceObject: {fileID: 0}
  m_PrefabInstance: {fileID: 0}
  m_PrefabAsset: {fileID: 0}
  m_GameObject: {fileID: 1604513427}
  m_LocalRotation: {x: 0, y: 0, z: 0, w: 1}
  m_LocalPosition: {x: 0, y: 0, z: 0}
  m_LocalScale: {x: 1, y: 1, z: 1}
  m_Children: []
  m_Father: {fileID: 0}
  m_RootOrder: 5
  m_LocalEulerAnglesHint: {x: 0, y: 0, z: 0}
--- !u!1 &1674329061 stripped
GameObject:
  m_CorrespondingSourceObject: {fileID: 1559098257834714, guid: d4a995833fef0534899db9724d1944a8,
    type: 3}
  m_PrefabInstance: {fileID: 1699345098}
  m_PrefabAsset: {fileID: 0}
--- !u!82 &1674329062
AudioSource:
  m_ObjectHideFlags: 0
  m_CorrespondingSourceObject: {fileID: 0}
  m_PrefabInstance: {fileID: 0}
  m_PrefabAsset: {fileID: 0}
  m_GameObject: {fileID: 1674329061}
  m_Enabled: 1
  serializedVersion: 4
  OutputAudioMixerGroup: {fileID: 0}
  m_audioClip: {fileID: 0}
  m_PlayOnAwake: 1
  m_Volume: 1
  m_Pitch: 1
  Loop: 0
  Mute: 0
  Spatialize: 0
  SpatializePostEffects: 0
  Priority: 128
  DopplerLevel: 1
  MinDistance: 1
  MaxDistance: 500
  Pan2D: 0
  rolloffMode: 0
  BypassEffects: 0
  BypassListenerEffects: 0
  BypassReverbZones: 0
  rolloffCustomCurve:
    serializedVersion: 2
    m_Curve:
    - serializedVersion: 3
      time: 0
      value: 1
      inSlope: 0
      outSlope: 0
      tangentMode: 0
      weightedMode: 0
      inWeight: 0.33333334
      outWeight: 0.33333334
    - serializedVersion: 3
      time: 1
      value: 0
      inSlope: 0
      outSlope: 0
      tangentMode: 0
      weightedMode: 0
      inWeight: 0.33333334
      outWeight: 0.33333334
    m_PreInfinity: 2
    m_PostInfinity: 2
    m_RotationOrder: 4
  panLevelCustomCurve:
    serializedVersion: 2
    m_Curve:
    - serializedVersion: 3
      time: 0
      value: 0
      inSlope: 0
      outSlope: 0
      tangentMode: 0
      weightedMode: 0
      inWeight: 0.33333334
      outWeight: 0.33333334
    m_PreInfinity: 2
    m_PostInfinity: 2
    m_RotationOrder: 4
  spreadCustomCurve:
    serializedVersion: 2
    m_Curve:
    - serializedVersion: 3
      time: 0
      value: 0
      inSlope: 0
      outSlope: 0
      tangentMode: 0
      weightedMode: 0
      inWeight: 0.33333334
      outWeight: 0.33333334
    m_PreInfinity: 2
    m_PostInfinity: 2
    m_RotationOrder: 4
  reverbZoneMixCustomCurve:
    serializedVersion: 2
    m_Curve:
    - serializedVersion: 3
      time: 0
      value: 1
      inSlope: 0
      outSlope: 0
      tangentMode: 0
      weightedMode: 0
      inWeight: 0.33333334
      outWeight: 0.33333334
    m_PreInfinity: 2
    m_PostInfinity: 2
    m_RotationOrder: 4
--- !u!1001 &1699345098
PrefabInstance:
  m_ObjectHideFlags: 0
  serializedVersion: 2
  m_Modification:
    m_TransformParent: {fileID: 0}
    m_Modifications:
    - target: {fileID: 1660638162923836, guid: d4a995833fef0534899db9724d1944a8, type: 3}
      propertyPath: m_IsActive
      value: 0
      objectReference: {fileID: 0}
    - target: {fileID: 1660638162923836, guid: d4a995833fef0534899db9724d1944a8, type: 3}
      propertyPath: m_Name
      value: Thorn
      objectReference: {fileID: 0}
    - target: {fileID: 224692337828174682, guid: d4a995833fef0534899db9724d1944a8,
        type: 3}
      propertyPath: m_LocalPosition.x
      value: 0
      objectReference: {fileID: 0}
    - target: {fileID: 224692337828174682, guid: d4a995833fef0534899db9724d1944a8,
        type: 3}
      propertyPath: m_LocalPosition.y
      value: 0
      objectReference: {fileID: 0}
    - target: {fileID: 224692337828174682, guid: d4a995833fef0534899db9724d1944a8,
        type: 3}
      propertyPath: m_LocalPosition.z
      value: -0.23847656
      objectReference: {fileID: 0}
    - target: {fileID: 224692337828174682, guid: d4a995833fef0534899db9724d1944a8,
        type: 3}
      propertyPath: m_LocalRotation.x
      value: 0
      objectReference: {fileID: 0}
    - target: {fileID: 224692337828174682, guid: d4a995833fef0534899db9724d1944a8,
        type: 3}
      propertyPath: m_LocalRotation.y
      value: 0
      objectReference: {fileID: 0}
    - target: {fileID: 224692337828174682, guid: d4a995833fef0534899db9724d1944a8,
        type: 3}
      propertyPath: m_LocalRotation.z
      value: 0
      objectReference: {fileID: 0}
    - target: {fileID: 224692337828174682, guid: d4a995833fef0534899db9724d1944a8,
        type: 3}
      propertyPath: m_LocalRotation.w
      value: 1
      objectReference: {fileID: 0}
    - target: {fileID: 224692337828174682, guid: d4a995833fef0534899db9724d1944a8,
        type: 3}
      propertyPath: m_RootOrder
      value: 4
      objectReference: {fileID: 0}
    - target: {fileID: 224692337828174682, guid: d4a995833fef0534899db9724d1944a8,
        type: 3}
      propertyPath: m_AnchoredPosition.x
      value: 5.438578
      objectReference: {fileID: 0}
    - target: {fileID: 224692337828174682, guid: d4a995833fef0534899db9724d1944a8,
        type: 3}
      propertyPath: m_AnchoredPosition.y
      value: 2.997656
      objectReference: {fileID: 0}
    - target: {fileID: 224692337828174682, guid: d4a995833fef0534899db9724d1944a8,
        type: 3}
      propertyPath: m_SizeDelta.x
      value: 100
      objectReference: {fileID: 0}
    - target: {fileID: 224692337828174682, guid: d4a995833fef0534899db9724d1944a8,
        type: 3}
      propertyPath: m_SizeDelta.y
      value: 100
      objectReference: {fileID: 0}
    - target: {fileID: 224692337828174682, guid: d4a995833fef0534899db9724d1944a8,
        type: 3}
      propertyPath: m_AnchorMin.x
      value: 0.5
      objectReference: {fileID: 0}
    - target: {fileID: 224692337828174682, guid: d4a995833fef0534899db9724d1944a8,
        type: 3}
      propertyPath: m_AnchorMin.y
      value: 0.5
      objectReference: {fileID: 0}
    - target: {fileID: 224692337828174682, guid: d4a995833fef0534899db9724d1944a8,
        type: 3}
      propertyPath: m_AnchorMax.x
      value: 0.5
      objectReference: {fileID: 0}
    - target: {fileID: 224692337828174682, guid: d4a995833fef0534899db9724d1944a8,
        type: 3}
      propertyPath: m_AnchorMax.y
      value: 0.5
      objectReference: {fileID: 0}
    - target: {fileID: 224692337828174682, guid: d4a995833fef0534899db9724d1944a8,
        type: 3}
      propertyPath: m_Pivot.x
      value: 0.5
      objectReference: {fileID: 0}
    - target: {fileID: 224692337828174682, guid: d4a995833fef0534899db9724d1944a8,
        type: 3}
      propertyPath: m_Pivot.y
      value: 0.5
      objectReference: {fileID: 0}
    - target: {fileID: 1549758557912422, guid: d4a995833fef0534899db9724d1944a8, type: 3}
      propertyPath: m_IsActive
      value: 0
      objectReference: {fileID: 0}
    - target: {fileID: 1058112619914848, guid: d4a995833fef0534899db9724d1944a8, type: 3}
      propertyPath: m_Name
      value: Mushroom
      objectReference: {fileID: 0}
    - target: {fileID: 1901384379791532424, guid: d4a995833fef0534899db9724d1944a8,
        type: 3}
      propertyPath: m_IsActive
      value: 0
      objectReference: {fileID: 0}
    - target: {fileID: 212391926492217832, guid: d4a995833fef0534899db9724d1944a8,
        type: 3}
      propertyPath: m_Color.r
      value: 0.54901963
      objectReference: {fileID: 0}
    - target: {fileID: 212391926492217832, guid: d4a995833fef0534899db9724d1944a8,
        type: 3}
      propertyPath: m_Color.g
      value: 0.54901963
      objectReference: {fileID: 0}
    - target: {fileID: 212391926492217832, guid: d4a995833fef0534899db9724d1944a8,
        type: 3}
      propertyPath: m_Color.b
      value: 0.54901963
      objectReference: {fileID: 0}
    - target: {fileID: 61503019794373868, guid: d4a995833fef0534899db9724d1944a8,
        type: 3}
      propertyPath: m_Enabled
      value: 1
      objectReference: {fileID: 0}
    - target: {fileID: 114985411910902546, guid: d4a995833fef0534899db9724d1944a8,
        type: 3}
      propertyPath: defenderPrefab
      value: 
      objectReference: {fileID: 114909859968797902, guid: 368e9aff6d1d0c64eac54e76a22e85c5,
        type: 3}
    - target: {fileID: 114985411910902546, guid: d4a995833fef0534899db9724d1944a8,
        type: 3}
      propertyPath: defenderSelectSound
      value: 
      objectReference: {fileID: 8300000, guid: 388bacf2ef0a2364781616f500a54264, type: 3}
    - target: {fileID: 212379328229537194, guid: d4a995833fef0534899db9724d1944a8,
        type: 3}
      propertyPath: m_Color.r
      value: 0.54901963
      objectReference: {fileID: 0}
    - target: {fileID: 212379328229537194, guid: d4a995833fef0534899db9724d1944a8,
        type: 3}
      propertyPath: m_Color.g
      value: 0.54901963
      objectReference: {fileID: 0}
    - target: {fileID: 212379328229537194, guid: d4a995833fef0534899db9724d1944a8,
        type: 3}
      propertyPath: m_Color.b
      value: 0.54901963
      objectReference: {fileID: 0}
    - target: {fileID: 61184929182599278, guid: d4a995833fef0534899db9724d1944a8,
        type: 3}
      propertyPath: m_Enabled
      value: 0
      objectReference: {fileID: 0}
    - target: {fileID: 114971614696740340, guid: d4a995833fef0534899db9724d1944a8,
        type: 3}
      propertyPath: defenderPrefab
      value: 
      objectReference: {fileID: 114730015755987230, guid: 6d1e50a76d4b1ed4ebd95057eb1c672c,
        type: 3}
    - target: {fileID: 212349094423400360, guid: d4a995833fef0534899db9724d1944a8,
        type: 3}
      propertyPath: m_Color.r
      value: 0.54901963
      objectReference: {fileID: 0}
    - target: {fileID: 212349094423400360, guid: d4a995833fef0534899db9724d1944a8,
        type: 3}
      propertyPath: m_Color.g
      value: 0.54901963
      objectReference: {fileID: 0}
    - target: {fileID: 212349094423400360, guid: d4a995833fef0534899db9724d1944a8,
        type: 3}
      propertyPath: m_Color.b
      value: 0.54901963
      objectReference: {fileID: 0}
    - target: {fileID: 212349094423400360, guid: d4a995833fef0534899db9724d1944a8,
        type: 3}
      propertyPath: m_Sprite
      value: 
      objectReference: {fileID: 8966194803602975413, guid: 81519c997811de74890b0a4e830101db,
        type: 3}
    - target: {fileID: 114799349882747212, guid: d4a995833fef0534899db9724d1944a8,
        type: 3}
      propertyPath: defenderSelectSound
      value: 
      objectReference: {fileID: 8300000, guid: 388bacf2ef0a2364781616f500a54264, type: 3}
    - target: {fileID: 212734744799371988, guid: d4a995833fef0534899db9724d1944a8,
        type: 3}
      propertyPath: m_Color.r
      value: 0.54901963
      objectReference: {fileID: 0}
    - target: {fileID: 212734744799371988, guid: d4a995833fef0534899db9724d1944a8,
        type: 3}
      propertyPath: m_Color.g
      value: 0.54901963
      objectReference: {fileID: 0}
    - target: {fileID: 212734744799371988, guid: d4a995833fef0534899db9724d1944a8,
        type: 3}
      propertyPath: m_Color.b
      value: 0.54901963
      objectReference: {fileID: 0}
    - target: {fileID: 212734744799371988, guid: d4a995833fef0534899db9724d1944a8,
        type: 3}
      propertyPath: m_Sprite
      value: 
      objectReference: {fileID: -7451194681563383075, guid: 52f43b805ed15a3438b8765a79f95ebc,
        type: 3}
    - target: {fileID: 61313973796866754, guid: d4a995833fef0534899db9724d1944a8,
        type: 3}
      propertyPath: m_Enabled
      value: 0
      objectReference: {fileID: 0}
    - target: {fileID: 114297844720976886, guid: d4a995833fef0534899db9724d1944a8,
        type: 3}
      propertyPath: defenderPrefab
      value: 
      objectReference: {fileID: 114823913217999490, guid: fea7f0ff17fcf504385b4d19edb8b6b4,
        type: 3}
    - target: {fileID: 1074455701547796, guid: d4a995833fef0534899db9724d1944a8, type: 3}
      propertyPath: m_IsActive
      value: 1
      objectReference: {fileID: 0}
    - target: {fileID: 1435128659559490, guid: d4a995833fef0534899db9724d1944a8, type: 3}
      propertyPath: m_IsActive
      value: 0
      objectReference: {fileID: 0}
    - target: {fileID: 1194146626453172, guid: d4a995833fef0534899db9724d1944a8, type: 3}
      propertyPath: m_IsActive
      value: 0
      objectReference: {fileID: 0}
    - target: {fileID: 114451481566934142, guid: d4a995833fef0534899db9724d1944a8,
        type: 3}
      propertyPath: m_Color.r
      value: 0.8980392
      objectReference: {fileID: 0}
    - target: {fileID: 114451481566934142, guid: d4a995833fef0534899db9724d1944a8,
        type: 3}
      propertyPath: m_Color.g
      value: 0.4
      objectReference: {fileID: 0}
    - target: {fileID: 114451481566934142, guid: d4a995833fef0534899db9724d1944a8,
        type: 3}
      propertyPath: m_Color.b
      value: 0.8
      objectReference: {fileID: 0}
    - target: {fileID: 114451481566934142, guid: d4a995833fef0534899db9724d1944a8,
        type: 3}
      propertyPath: m_FontData.m_Font
      value: 
      objectReference: {fileID: 12800000, guid: 98b4a2a26f320d44abc3a331e932b572,
        type: 3}
    - target: {fileID: 114638062175459456, guid: d4a995833fef0534899db9724d1944a8,
        type: 3}
      propertyPath: m_Color.r
      value: 0.8980392
      objectReference: {fileID: 0}
    - target: {fileID: 114638062175459456, guid: d4a995833fef0534899db9724d1944a8,
        type: 3}
      propertyPath: m_Color.g
      value: 0.4
      objectReference: {fileID: 0}
    - target: {fileID: 114638062175459456, guid: d4a995833fef0534899db9724d1944a8,
        type: 3}
      propertyPath: m_Color.b
      value: 0.8
      objectReference: {fileID: 0}
    - target: {fileID: 114638062175459456, guid: d4a995833fef0534899db9724d1944a8,
        type: 3}
      propertyPath: m_FontData.m_Font
      value: 
      objectReference: {fileID: 12800000, guid: 98b4a2a26f320d44abc3a331e932b572,
        type: 3}
    - target: {fileID: 114322608784970858, guid: d4a995833fef0534899db9724d1944a8,
        type: 3}
      propertyPath: m_Color.r
      value: 0.8980392
      objectReference: {fileID: 0}
    - target: {fileID: 114322608784970858, guid: d4a995833fef0534899db9724d1944a8,
        type: 3}
      propertyPath: m_Color.g
      value: 0.4
      objectReference: {fileID: 0}
    - target: {fileID: 114322608784970858, guid: d4a995833fef0534899db9724d1944a8,
        type: 3}
      propertyPath: m_Color.b
      value: 0.8
      objectReference: {fileID: 0}
    - target: {fileID: 114322608784970858, guid: d4a995833fef0534899db9724d1944a8,
        type: 3}
      propertyPath: m_FontData.m_Font
      value: 
      objectReference: {fileID: 12800000, guid: 98b4a2a26f320d44abc3a331e932b572,
        type: 3}
    - target: {fileID: 114233612151245728, guid: d4a995833fef0534899db9724d1944a8,
        type: 3}
      propertyPath: m_Color.r
      value: 0.8980392
      objectReference: {fileID: 0}
    - target: {fileID: 114233612151245728, guid: d4a995833fef0534899db9724d1944a8,
        type: 3}
      propertyPath: m_Color.g
      value: 0.4
      objectReference: {fileID: 0}
    - target: {fileID: 114233612151245728, guid: d4a995833fef0534899db9724d1944a8,
        type: 3}
      propertyPath: m_Color.b
      value: 0.8
      objectReference: {fileID: 0}
    - target: {fileID: 114233612151245728, guid: d4a995833fef0534899db9724d1944a8,
        type: 3}
      propertyPath: m_FontData.m_Font
      value: 
      objectReference: {fileID: 12800000, guid: 98b4a2a26f320d44abc3a331e932b572,
        type: 3}
    m_RemovedComponents: []
  m_SourcePrefab: {fileID: 100100000, guid: d4a995833fef0534899db9724d1944a8, type: 3}
--- !u!1 &1721989022
GameObject:
  m_ObjectHideFlags: 0
  m_CorrespondingSourceObject: {fileID: 0}
  m_PrefabInstance: {fileID: 0}
  m_PrefabAsset: {fileID: 0}
  serializedVersion: 6
  m_Component:
  - component: {fileID: 1721989023}
  m_Layer: 0
  m_Name: Defenders
  m_TagString: Untagged
  m_Icon: {fileID: 0}
  m_NavMeshLayer: 0
  m_StaticEditorFlags: 0
  m_IsActive: 1
--- !u!4 &1721989023
Transform:
  m_ObjectHideFlags: 0
  m_CorrespondingSourceObject: {fileID: 0}
  m_PrefabInstance: {fileID: 0}
  m_PrefabAsset: {fileID: 0}
  m_GameObject: {fileID: 1721989022}
  m_LocalRotation: {x: 0, y: 0, z: 0, w: 1}
  m_LocalPosition: {x: 4.791426, y: 2.9486237, z: -1.6240234}
  m_LocalScale: {x: 1, y: 1, z: 1}
  m_Children: []
  m_Father: {fileID: 0}
  m_RootOrder: 7
  m_LocalEulerAnglesHint: {x: 0, y: 0, z: 0}
--- !u!1 &1764711786 stripped
GameObject:
  m_CorrespondingSourceObject: {fileID: 1058112619914848, guid: d4a995833fef0534899db9724d1944a8,
    type: 3}
  m_PrefabInstance: {fileID: 1699345098}
  m_PrefabAsset: {fileID: 0}
--- !u!82 &1764711787
AudioSource:
  m_ObjectHideFlags: 0
  m_CorrespondingSourceObject: {fileID: 0}
  m_PrefabInstance: {fileID: 0}
  m_PrefabAsset: {fileID: 0}
  m_GameObject: {fileID: 1764711786}
  m_Enabled: 1
  serializedVersion: 4
  OutputAudioMixerGroup: {fileID: 0}
  m_audioClip: {fileID: 0}
  m_PlayOnAwake: 1
  m_Volume: 1
  m_Pitch: 1
  Loop: 0
  Mute: 0
  Spatialize: 0
  SpatializePostEffects: 0
  Priority: 128
  DopplerLevel: 1
  MinDistance: 1
  MaxDistance: 500
  Pan2D: 0
  rolloffMode: 0
  BypassEffects: 0
  BypassListenerEffects: 0
  BypassReverbZones: 0
  rolloffCustomCurve:
    serializedVersion: 2
    m_Curve:
    - serializedVersion: 3
      time: 0
      value: 1
      inSlope: 0
      outSlope: 0
      tangentMode: 0
      weightedMode: 0
      inWeight: 0.33333334
      outWeight: 0.33333334
    - serializedVersion: 3
      time: 1
      value: 0
      inSlope: 0
      outSlope: 0
      tangentMode: 0
      weightedMode: 0
      inWeight: 0.33333334
      outWeight: 0.33333334
    m_PreInfinity: 2
    m_PostInfinity: 2
    m_RotationOrder: 4
  panLevelCustomCurve:
    serializedVersion: 2
    m_Curve:
    - serializedVersion: 3
      time: 0
      value: 0
      inSlope: 0
      outSlope: 0
      tangentMode: 0
      weightedMode: 0
      inWeight: 0.33333334
      outWeight: 0.33333334
    m_PreInfinity: 2
    m_PostInfinity: 2
    m_RotationOrder: 4
  spreadCustomCurve:
    serializedVersion: 2
    m_Curve:
    - serializedVersion: 3
      time: 0
      value: 0
      inSlope: 0
      outSlope: 0
      tangentMode: 0
      weightedMode: 0
      inWeight: 0.33333334
      outWeight: 0.33333334
    m_PreInfinity: 2
    m_PostInfinity: 2
    m_RotationOrder: 4
  reverbZoneMixCustomCurve:
    serializedVersion: 2
    m_Curve:
    - serializedVersion: 3
      time: 0
      value: 1
      inSlope: 0
      outSlope: 0
      tangentMode: 0
      weightedMode: 0
      inWeight: 0.33333334
      outWeight: 0.33333334
    m_PreInfinity: 2
    m_PostInfinity: 2
    m_RotationOrder: 4
--- !u!1001 &1856282350
PrefabInstance:
  m_ObjectHideFlags: 0
  serializedVersion: 2
  m_Modification:
    m_TransformParent: {fileID: 0}
    m_Modifications:
    - target: {fileID: 1420497600473072, guid: 6dc2e3963f43a5a4297dbe0b55c85a8d, type: 3}
      propertyPath: m_Name
      value: Main Canvas
      objectReference: {fileID: 0}
    - target: {fileID: 224334072657064200, guid: 6dc2e3963f43a5a4297dbe0b55c85a8d,
        type: 3}
      propertyPath: m_LocalPosition.x
      value: 0
      objectReference: {fileID: 0}
    - target: {fileID: 224334072657064200, guid: 6dc2e3963f43a5a4297dbe0b55c85a8d,
        type: 3}
      propertyPath: m_LocalPosition.y
      value: 0
      objectReference: {fileID: 0}
    - target: {fileID: 224334072657064200, guid: 6dc2e3963f43a5a4297dbe0b55c85a8d,
        type: 3}
      propertyPath: m_LocalPosition.z
      value: 0
      objectReference: {fileID: 0}
    - target: {fileID: 224334072657064200, guid: 6dc2e3963f43a5a4297dbe0b55c85a8d,
        type: 3}
      propertyPath: m_LocalRotation.x
      value: 0
      objectReference: {fileID: 0}
    - target: {fileID: 224334072657064200, guid: 6dc2e3963f43a5a4297dbe0b55c85a8d,
        type: 3}
      propertyPath: m_LocalRotation.y
      value: 0
      objectReference: {fileID: 0}
    - target: {fileID: 224334072657064200, guid: 6dc2e3963f43a5a4297dbe0b55c85a8d,
        type: 3}
      propertyPath: m_LocalRotation.z
      value: 0
      objectReference: {fileID: 0}
    - target: {fileID: 224334072657064200, guid: 6dc2e3963f43a5a4297dbe0b55c85a8d,
        type: 3}
      propertyPath: m_LocalRotation.w
      value: 1
      objectReference: {fileID: 0}
    - target: {fileID: 224334072657064200, guid: 6dc2e3963f43a5a4297dbe0b55c85a8d,
        type: 3}
      propertyPath: m_RootOrder
      value: 1
      objectReference: {fileID: 0}
    - target: {fileID: 224334072657064200, guid: 6dc2e3963f43a5a4297dbe0b55c85a8d,
        type: 3}
      propertyPath: m_AnchoredPosition.x
      value: 5
      objectReference: {fileID: 0}
    - target: {fileID: 224334072657064200, guid: 6dc2e3963f43a5a4297dbe0b55c85a8d,
        type: 3}
      propertyPath: m_AnchoredPosition.y
      value: 3
      objectReference: {fileID: 0}
    - target: {fileID: 224334072657064200, guid: 6dc2e3963f43a5a4297dbe0b55c85a8d,
        type: 3}
      propertyPath: m_SizeDelta.x
      value: 1920
      objectReference: {fileID: 0}
    - target: {fileID: 224334072657064200, guid: 6dc2e3963f43a5a4297dbe0b55c85a8d,
        type: 3}
      propertyPath: m_SizeDelta.y
      value: 1079.2786
      objectReference: {fileID: 0}
    - target: {fileID: 224334072657064200, guid: 6dc2e3963f43a5a4297dbe0b55c85a8d,
        type: 3}
      propertyPath: m_AnchorMin.x
      value: 0
      objectReference: {fileID: 0}
    - target: {fileID: 224334072657064200, guid: 6dc2e3963f43a5a4297dbe0b55c85a8d,
        type: 3}
      propertyPath: m_AnchorMin.y
      value: 0
      objectReference: {fileID: 0}
    - target: {fileID: 224334072657064200, guid: 6dc2e3963f43a5a4297dbe0b55c85a8d,
        type: 3}
      propertyPath: m_AnchorMax.x
      value: 0
      objectReference: {fileID: 0}
    - target: {fileID: 224334072657064200, guid: 6dc2e3963f43a5a4297dbe0b55c85a8d,
        type: 3}
      propertyPath: m_AnchorMax.y
      value: 0
      objectReference: {fileID: 0}
    - target: {fileID: 224334072657064200, guid: 6dc2e3963f43a5a4297dbe0b55c85a8d,
        type: 3}
      propertyPath: m_Pivot.x
      value: 0.5
      objectReference: {fileID: 0}
    - target: {fileID: 224334072657064200, guid: 6dc2e3963f43a5a4297dbe0b55c85a8d,
        type: 3}
      propertyPath: m_Pivot.y
      value: 0.5
      objectReference: {fileID: 0}
    - target: {fileID: 224553267476746374, guid: 6dc2e3963f43a5a4297dbe0b55c85a8d,
        type: 3}
      propertyPath: m_AnchorMin.x
      value: 0
      objectReference: {fileID: 0}
    - target: {fileID: 224553267476746374, guid: 6dc2e3963f43a5a4297dbe0b55c85a8d,
        type: 3}
      propertyPath: m_AnchorMax.x
      value: 0
      objectReference: {fileID: 0}
    - target: {fileID: 224553267476746374, guid: 6dc2e3963f43a5a4297dbe0b55c85a8d,
        type: 3}
      propertyPath: m_AnchorMax.y
      value: 0
      objectReference: {fileID: 0}
    - target: {fileID: 224915506723135496, guid: 6dc2e3963f43a5a4297dbe0b55c85a8d,
        type: 3}
      propertyPath: m_AnchorMin.x
      value: 0
      objectReference: {fileID: 0}
    - target: {fileID: 224915506723135496, guid: 6dc2e3963f43a5a4297dbe0b55c85a8d,
        type: 3}
      propertyPath: m_AnchorMax.x
      value: 0
      objectReference: {fileID: 0}
    - target: {fileID: 224915506723135496, guid: 6dc2e3963f43a5a4297dbe0b55c85a8d,
        type: 3}
      propertyPath: m_AnchorMax.y
      value: 0
      objectReference: {fileID: 0}
    - target: {fileID: 114429871288298956, guid: 6dc2e3963f43a5a4297dbe0b55c85a8d,
        type: 3}
      propertyPath: levelTime
      value: 30
      objectReference: {fileID: 0}
    - target: {fileID: 114429871288298956, guid: 6dc2e3963f43a5a4297dbe0b55c85a8d,
        type: 3}
      propertyPath: delaySlider
      value: 1
      objectReference: {fileID: 0}
    - target: {fileID: 114009962718335206, guid: 6dc2e3963f43a5a4297dbe0b55c85a8d,
        type: 3}
      propertyPath: stars
      value: 250
      objectReference: {fileID: 0}
    m_RemovedComponents: []
  m_SourcePrefab: {fileID: 100100000, guid: 6dc2e3963f43a5a4297dbe0b55c85a8d, type: 3}
--- !u!114 &1856282351 stripped
MonoBehaviour:
  m_CorrespondingSourceObject: {fileID: 114464606962373248, guid: 6dc2e3963f43a5a4297dbe0b55c85a8d,
    type: 3}
  m_PrefabInstance: {fileID: 1856282350}
  m_PrefabAsset: {fileID: 0}
  m_GameObject: {fileID: 0}
  m_Enabled: 1
  m_EditorHideFlags: 0
  m_Script: {fileID: 11500000, guid: 5f7201a12d95ffc409449d95f23cf332, type: 3}
  m_Name: 
  m_EditorClassIdentifier: 
--- !u!1 &2082579479
GameObject:
  m_ObjectHideFlags: 0
  m_CorrespondingSourceObject: {fileID: 0}
  m_PrefabInstance: {fileID: 0}
  m_PrefabAsset: {fileID: 0}
  serializedVersion: 6
  m_Component:
  - component: {fileID: 2082579480}
  m_Layer: 0
  m_Name: Spawners
  m_TagString: Untagged
  m_Icon: {fileID: 0}
  m_NavMeshLayer: 0
  m_StaticEditorFlags: 0
  m_IsActive: 1
--- !u!4 &2082579480
Transform:
  m_ObjectHideFlags: 0
  m_CorrespondingSourceObject: {fileID: 0}
  m_PrefabInstance: {fileID: 0}
  m_PrefabAsset: {fileID: 0}
  m_GameObject: {fileID: 2082579479}
  m_LocalRotation: {x: 0, y: 0, z: 0, w: 1}
  m_LocalPosition: {x: 0, y: 0, z: 0}
  m_LocalScale: {x: 1, y: 1, z: 1}
  m_Children:
  - {fileID: 1472841699}
  - {fileID: 557978800}
  - {fileID: 827130541}
  - {fileID: 12710567}
  - {fileID: 848811184}
  m_Father: {fileID: 0}
  m_RootOrder: 6
  m_LocalEulerAnglesHint: {x: 0, y: 0, z: 0}
--- !u!1001 &2106621614
PrefabInstance:
  m_ObjectHideFlags: 0
  serializedVersion: 2
  m_Modification:
    m_TransformParent: {fileID: 2118012029}
    m_Modifications:
    - target: {fileID: 4657867077449048, guid: 1ee37da65c855354c9c93e4aae5473d9, type: 3}
      propertyPath: m_LocalPosition.x
      value: -0.1879487
      objectReference: {fileID: 0}
    - target: {fileID: 4657867077449048, guid: 1ee37da65c855354c9c93e4aae5473d9, type: 3}
      propertyPath: m_LocalPosition.y
      value: -0.29112864
      objectReference: {fileID: 0}
    - target: {fileID: 4657867077449048, guid: 1ee37da65c855354c9c93e4aae5473d9, type: 3}
      propertyPath: m_LocalPosition.z
      value: 1.6259766
      objectReference: {fileID: 0}
    - target: {fileID: 4657867077449048, guid: 1ee37da65c855354c9c93e4aae5473d9, type: 3}
      propertyPath: m_LocalRotation.x
      value: -0
      objectReference: {fileID: 0}
    - target: {fileID: 4657867077449048, guid: 1ee37da65c855354c9c93e4aae5473d9, type: 3}
      propertyPath: m_LocalRotation.y
      value: -0
      objectReference: {fileID: 0}
    - target: {fileID: 4657867077449048, guid: 1ee37da65c855354c9c93e4aae5473d9, type: 3}
      propertyPath: m_LocalRotation.z
      value: -0
      objectReference: {fileID: 0}
    - target: {fileID: 4657867077449048, guid: 1ee37da65c855354c9c93e4aae5473d9, type: 3}
      propertyPath: m_LocalRotation.w
      value: 1
      objectReference: {fileID: 0}
    - target: {fileID: 4657867077449048, guid: 1ee37da65c855354c9c93e4aae5473d9, type: 3}
      propertyPath: m_RootOrder
      value: 0
      objectReference: {fileID: 0}
    - target: {fileID: 114664922250655312, guid: 1ee37da65c855354c9c93e4aae5473d9,
        type: 3}
      propertyPath: winLabel
      value: 
      objectReference: {fileID: 642340455}
    - target: {fileID: 114664922250655312, guid: 1ee37da65c855354c9c93e4aae5473d9,
        type: 3}
      propertyPath: loseLabel
      value: 
      objectReference: {fileID: 783317875}
    - target: {fileID: 114664922250655312, guid: 1ee37da65c855354c9c93e4aae5473d9,
        type: 3}
      propertyPath: livesText
      value: 
      objectReference: {fileID: 1856282351}
    m_RemovedComponents: []
  m_SourcePrefab: {fileID: 100100000, guid: 1ee37da65c855354c9c93e4aae5473d9, type: 3}
--- !u!1 &2118012028
GameObject:
  m_ObjectHideFlags: 0
  m_CorrespondingSourceObject: {fileID: 0}
  m_PrefabInstance: {fileID: 0}
  m_PrefabAsset: {fileID: 0}
  serializedVersion: 6
  m_Component:
  - component: {fileID: 2118012029}
  m_Layer: 0
  m_Name: Level Related GameObjects
  m_TagString: Untagged
  m_Icon: {fileID: 0}
  m_NavMeshLayer: 0
  m_StaticEditorFlags: 0
  m_IsActive: 1
--- !u!4 &2118012029
Transform:
  m_ObjectHideFlags: 0
  m_CorrespondingSourceObject: {fileID: 0}
  m_PrefabInstance: {fileID: 0}
  m_PrefabAsset: {fileID: 0}
  m_GameObject: {fileID: 2118012028}
  m_LocalRotation: {x: 0, y: 0, z: 0, w: 1}
  m_LocalPosition: {x: 4.791426, y: 2.9486237, z: -1.6240234}
  m_LocalScale: {x: 1, y: 1, z: 1}
  m_Children:
  - {fileID: 319040611}
  - {fileID: 642340456}
  - {fileID: 783317876}
  m_Father: {fileID: 0}
  m_RootOrder: 8
  m_LocalEulerAnglesHint: {x: 0, y: 0, z: 0}
